{
  "count": 123,
  "next": "https://usta.prodaft.com/api/threat-stream/v4/example-items?page=4",
  "previous": "https://usta.prodaft.com/api/threat-stream/v4/example-items?page=2",
  "results": [
    {
      "company": {
        "id": 0,
        "name": "string"
      },
      "content": {
        "is_corporate": true,
        "password": "string",
        "password_complexity": {
          "contains": {
            "lowercase": 0,
            "numbers": 0,
            "other": 0,
            "punctuation": 0,
            "separators": 0,
            "symbols": 0,
            "uppercase": 0
          },
          "length": 0,
          "score": "very_weak"
        },
        "source": "malware",
        "url": "http://example.com",
        "username": "string",
        "victim_detail": {
          "computer_name": "string",
          "country": "string",
          "cpu": "string",
          "gpu": "string",
          "infection_date": "string",
          "ip": "string",
          "language": "string",
          "malware": "string",
          "memory": "string",
          "phone_number": "string",
          "username": "string",
          "victim_os": "string",
          "victim_uid": "9eee4f4d-714d-402f-b9c1-17d4442e0901"
        }
      },
      "content_type": "string",
      "created": "2019-08-24T14:15:22Z",
      "id": 0,
      "status": "in_progress",
      "status_timestamp": "2019-08-24T14:15:22Z"
    }
  ]
}